[15-Dec-2012 11:08:50 UTC] PHP Warning:  chmod(): Operation not permitted in /var/www/edventure.cz/blog.edventure.cz/admin/install.php on line 42
[15-Dec-2012 11:08:50 UTC] PHP Warning:  copy(/var/www/edventure.cz/blog.edventure.cz/data/uploads/tmp.tmp): failed to open stream: Permission denied in /var/www/edventure.cz/blog.edventure.cz/admin/install.php on line 43
[15-Dec-2012 11:08:50 UTC] PHP Warning:  chmod(): Operation not permitted in /var/www/edventure.cz/blog.edventure.cz/admin/install.php on line 46
[15-Dec-2012 11:08:50 UTC] PHP Warning:  copy(/var/www/edventure.cz/blog.edventure.cz/data/uploads/tmp.tmp): failed to open stream: Permission denied in /var/www/edventure.cz/blog.edventure.cz/admin/install.php on line 47
[15-Dec-2012 11:08:50 UTC] PHP Warning:  chmod(): Operation not permitted in /var/www/edventure.cz/blog.edventure.cz/admin/install.php on line 42
[15-Dec-2012 11:08:50 UTC] PHP Warning:  copy(/var/www/edventure.cz/blog.edventure.cz/data/thumbs/tmp.tmp): failed to open stream: Permission denied in /var/www/edventure.cz/blog.edventure.cz/admin/install.php on line 43
[15-Dec-2012 11:08:50 UTC] PHP Warning:  chmod(): Operation not permitted in /var/www/edventure.cz/blog.edventure.cz/admin/install.php on line 46
[15-Dec-2012 11:08:50 UTC] PHP Warning:  copy(/var/www/edventure.cz/blog.edventure.cz/data/thumbs/tmp.tmp): failed to open stream: Permission denied in /var/www/edventure.cz/blog.edventure.cz/admin/install.php on line 47
[15-Dec-2012 11:08:50 UTC] PHP Warning:  chmod(): Operation not permitted in /var/www/edventure.cz/blog.edventure.cz/admin/install.php on line 42
[15-Dec-2012 11:08:50 UTC] PHP Warning:  chmod(): Operation not permitted in /var/www/edventure.cz/blog.edventure.cz/admin/install.php on line 42
[15-Dec-2012 11:08:50 UTC] PHP Warning:  copy(/var/www/edventure.cz/blog.edventure.cz/backups/other/tmp.tmp): failed to open stream: Permission denied in /var/www/edventure.cz/blog.edventure.cz/admin/install.php on line 43
[15-Dec-2012 11:08:50 UTC] PHP Warning:  chmod(): Operation not permitted in /var/www/edventure.cz/blog.edventure.cz/admin/install.php on line 46
[15-Dec-2012 11:08:50 UTC] PHP Warning:  copy(/var/www/edventure.cz/blog.edventure.cz/backups/other/tmp.tmp): failed to open stream: Permission denied in /var/www/edventure.cz/blog.edventure.cz/admin/install.php on line 47
[15-Dec-2012 11:11:31 UTC] PHP Warning:  chmod(): Operation not permitted in /var/www/edventure.cz/blog.edventure.cz/admin/install.php on line 42
[15-Dec-2012 11:11:31 UTC] PHP Warning:  chmod(): Operation not permitted in /var/www/edventure.cz/blog.edventure.cz/admin/install.php on line 42
[15-Dec-2012 11:11:31 UTC] PHP Warning:  chmod(): Operation not permitted in /var/www/edventure.cz/blog.edventure.cz/admin/install.php on line 42
[15-Dec-2012 11:11:31 UTC] PHP Warning:  chmod(): Operation not permitted in /var/www/edventure.cz/blog.edventure.cz/admin/install.php on line 42
[15-Dec-2012 11:11:31 UTC] PHP Warning:  chmod(): Operation not permitted in /var/www/edventure.cz/blog.edventure.cz/admin/install.php on line 42
[15-Dec-2012 11:28:06 UTC] PHP Warning:  chmod(): Operation not permitted in /var/www/edventure.cz/blog.edventure.cz/admin/install.php on line 42
[15-Dec-2012 11:28:06 UTC] PHP Warning:  chmod(): Operation not permitted in /var/www/edventure.cz/blog.edventure.cz/admin/install.php on line 42
[15-Dec-2012 11:28:06 UTC] PHP Warning:  chmod(): Operation not permitted in /var/www/edventure.cz/blog.edventure.cz/admin/install.php on line 42
[15-Dec-2012 11:28:06 UTC] PHP Warning:  chmod(): Operation not permitted in /var/www/edventure.cz/blog.edventure.cz/admin/install.php on line 42
[15-Dec-2012 11:28:06 UTC] PHP Warning:  chmod(): Operation not permitted in /var/www/edventure.cz/blog.edventure.cz/admin/install.php on line 42
[15-Dec-2012 11:36:48 UTC] PHP Warning:  chmod(): Operation not permitted in /var/www/edventure.cz/blog.edventure.cz/admin/install.php on line 42
[15-Dec-2012 11:36:48 UTC] PHP Warning:  chmod(): Operation not permitted in /var/www/edventure.cz/blog.edventure.cz/admin/install.php on line 42
[15-Dec-2012 11:36:48 UTC] PHP Warning:  chmod(): Operation not permitted in /var/www/edventure.cz/blog.edventure.cz/admin/install.php on line 42
[15-Dec-2012 11:36:48 UTC] PHP Warning:  chmod(): Operation not permitted in /var/www/edventure.cz/blog.edventure.cz/admin/install.php on line 42
[15-Dec-2012 11:36:48 UTC] PHP Warning:  chmod(): Operation not permitted in /var/www/edventure.cz/blog.edventure.cz/admin/install.php on line 42
[15-Dec-2012 11:36:48 UTC] PHP Warning:  chmod(): Operation not permitted in /var/www/edventure.cz/blog.edventure.cz/admin/install.php on line 42
[15-Dec-2012 11:36:48 UTC] PHP Warning:  chmod(): Operation not permitted in /var/www/edventure.cz/blog.edventure.cz/admin/install.php on line 42
[15-Dec-2012 11:36:48 UTC] PHP Warning:  chmod(): Operation not permitted in /var/www/edventure.cz/blog.edventure.cz/admin/install.php on line 42
[15-Dec-2012 11:36:48 UTC] PHP Warning:  chmod(): Operation not permitted in /var/www/edventure.cz/blog.edventure.cz/admin/install.php on line 42
[15-Dec-2012 11:36:48 UTC] PHP Warning:  chmod(): Operation not permitted in /var/www/edventure.cz/blog.edventure.cz/admin/install.php on line 42
[15-Dec-2012 11:45:22 UTC] PHP Warning:  chmod(): Operation not permitted in /var/www/edventure.cz/blog.edventure.cz/admin/install.php on line 42
[15-Dec-2012 11:45:22 UTC] PHP Warning:  chmod(): Operation not permitted in /var/www/edventure.cz/blog.edventure.cz/admin/install.php on line 42
[15-Dec-2012 11:45:22 UTC] PHP Warning:  chmod(): Operation not permitted in /var/www/edventure.cz/blog.edventure.cz/admin/install.php on line 42
[15-Dec-2012 11:45:22 UTC] PHP Warning:  chmod(): Operation not permitted in /var/www/edventure.cz/blog.edventure.cz/admin/install.php on line 42
[15-Dec-2012 11:45:22 UTC] PHP Warning:  chmod(): Operation not permitted in /var/www/edventure.cz/blog.edventure.cz/admin/install.php on line 42
[15-Dec-2012 11:48:44 UTC] PHP Warning:  chmod(): Operation not permitted in /var/www/edventure.cz/blog.edventure.cz/admin/install.php on line 42
[15-Dec-2012 11:48:44 UTC] PHP Warning:  chmod(): Operation not permitted in /var/www/edventure.cz/blog.edventure.cz/admin/install.php on line 42
[15-Dec-2012 11:48:44 UTC] PHP Warning:  chmod(): Operation not permitted in /var/www/edventure.cz/blog.edventure.cz/admin/install.php on line 42
[15-Dec-2012 11:48:44 UTC] PHP Warning:  chmod(): Operation not permitted in /var/www/edventure.cz/blog.edventure.cz/admin/install.php on line 42
[15-Dec-2012 11:48:44 UTC] PHP Warning:  chmod(): Operation not permitted in /var/www/edventure.cz/blog.edventure.cz/admin/install.php on line 42
[15-Dec-2012 11:48:44 UTC] PHP Warning:  chmod(): Operation not permitted in /var/www/edventure.cz/blog.edventure.cz/admin/install.php on line 42
[15-Dec-2012 11:48:44 UTC] PHP Warning:  chmod(): Operation not permitted in /var/www/edventure.cz/blog.edventure.cz/admin/install.php on line 42
[15-Dec-2012 11:48:44 UTC] PHP Warning:  chmod(): Operation not permitted in /var/www/edventure.cz/blog.edventure.cz/admin/install.php on line 42
[15-Dec-2012 11:48:44 UTC] PHP Warning:  chmod(): Operation not permitted in /var/www/edventure.cz/blog.edventure.cz/admin/install.php on line 42
[15-Dec-2012 11:48:44 UTC] PHP Warning:  chmod(): Operation not permitted in /var/www/edventure.cz/blog.edventure.cz/admin/install.php on line 42
[15-Dec-2012 11:58:11 UTC] PHP Warning:  chmod(): Operation not permitted in /var/www/edventure.cz/blog.edventure.cz/admin/install.php on line 42
[15-Dec-2012 11:58:11 UTC] PHP Warning:  chmod(): Operation not permitted in /var/www/edventure.cz/blog.edventure.cz/admin/install.php on line 42
[15-Dec-2012 11:58:11 UTC] PHP Warning:  chmod(): Operation not permitted in /var/www/edventure.cz/blog.edventure.cz/admin/install.php on line 42
[15-Dec-2012 11:58:11 UTC] PHP Warning:  chmod(): Operation not permitted in /var/www/edventure.cz/blog.edventure.cz/admin/install.php on line 42
[15-Dec-2012 11:58:11 UTC] PHP Warning:  chmod(): Operation not permitted in /var/www/edventure.cz/blog.edventure.cz/admin/install.php on line 42
[15-Dec-2012 11:58:14 UTC] PHP Warning:  chmod(): Operation not permitted in /var/www/edventure.cz/blog.edventure.cz/admin/install.php on line 42
[15-Dec-2012 11:58:14 UTC] PHP Warning:  chmod(): Operation not permitted in /var/www/edventure.cz/blog.edventure.cz/admin/install.php on line 42
[15-Dec-2012 11:58:14 UTC] PHP Warning:  chmod(): Operation not permitted in /var/www/edventure.cz/blog.edventure.cz/admin/install.php on line 42
[15-Dec-2012 11:58:14 UTC] PHP Warning:  chmod(): Operation not permitted in /var/www/edventure.cz/blog.edventure.cz/admin/install.php on line 42
[15-Dec-2012 11:58:14 UTC] PHP Warning:  chmod(): Operation not permitted in /var/www/edventure.cz/blog.edventure.cz/admin/install.php on line 42
[15-Dec-2012 12:15:34 UTC] PHP Warning:  chmod(): Operation not permitted in /var/www/edventure.cz/blog.edventure.cz/admin/install.php on line 42
[15-Dec-2012 12:15:34 UTC] PHP Warning:  chmod(): Operation not permitted in /var/www/edventure.cz/blog.edventure.cz/admin/install.php on line 42
[15-Dec-2012 12:15:34 UTC] PHP Warning:  chmod(): Operation not permitted in /var/www/edventure.cz/blog.edventure.cz/admin/install.php on line 42
[15-Dec-2012 12:15:34 UTC] PHP Warning:  chmod(): Operation not permitted in /var/www/edventure.cz/blog.edventure.cz/admin/install.php on line 42
[15-Dec-2012 12:15:34 UTC] PHP Warning:  chmod(): Operation not permitted in /var/www/edventure.cz/blog.edventure.cz/admin/install.php on line 42
[15-Dec-2012 12:20:56 UTC] PHP Warning:  chmod(): Operation not permitted in /var/www/edventure.cz/blog.edventure.cz/admin/install.php on line 42
[15-Dec-2012 12:20:56 UTC] PHP Warning:  chmod(): Operation not permitted in /var/www/edventure.cz/blog.edventure.cz/admin/install.php on line 42
[15-Dec-2012 12:20:56 UTC] PHP Warning:  chmod(): Operation not permitted in /var/www/edventure.cz/blog.edventure.cz/admin/install.php on line 42
[15-Dec-2012 12:20:56 UTC] PHP Warning:  chmod(): Operation not permitted in /var/www/edventure.cz/blog.edventure.cz/admin/install.php on line 42
[15-Dec-2012 12:20:56 UTC] PHP Warning:  chmod(): Operation not permitted in /var/www/edventure.cz/blog.edventure.cz/admin/install.php on line 42
[15-Dec-2012 12:20:56 UTC] PHP Warning:  chmod(): Operation not permitted in /var/www/edventure.cz/blog.edventure.cz/admin/install.php on line 42
[15-Dec-2012 12:20:56 UTC] PHP Warning:  chmod(): Operation not permitted in /var/www/edventure.cz/blog.edventure.cz/admin/install.php on line 42
[15-Dec-2012 12:20:56 UTC] PHP Warning:  chmod(): Operation not permitted in /var/www/edventure.cz/blog.edventure.cz/admin/install.php on line 42
[15-Dec-2012 12:20:56 UTC] PHP Warning:  chmod(): Operation not permitted in /var/www/edventure.cz/blog.edventure.cz/admin/install.php on line 42
[15-Dec-2012 12:20:56 UTC] PHP Warning:  chmod(): Operation not permitted in /var/www/edventure.cz/blog.edventure.cz/admin/install.php on line 42
[15-Dec-2012 12:21:38 UTC] PHP Warning:  chmod(): Operation not permitted in /var/www/edventure.cz/blog.edventure.cz/admin/install.php on line 42
[15-Dec-2012 12:21:38 UTC] PHP Warning:  chmod(): Operation not permitted in /var/www/edventure.cz/blog.edventure.cz/admin/install.php on line 42
[15-Dec-2012 12:21:38 UTC] PHP Warning:  chmod(): Operation not permitted in /var/www/edventure.cz/blog.edventure.cz/admin/install.php on line 42
[15-Dec-2012 12:21:38 UTC] PHP Warning:  chmod(): Operation not permitted in /var/www/edventure.cz/blog.edventure.cz/admin/install.php on line 42
[15-Dec-2012 12:21:38 UTC] PHP Warning:  chmod(): Operation not permitted in /var/www/edventure.cz/blog.edventure.cz/admin/install.php on line 42
[15-Dec-2012 12:22:17 UTC] PHP Warning:  fopen(/var/www/edventure.cz/blog.edventure.cz/.htaccess): failed to open stream: Permission denied in /var/www/edventure.cz/blog.edventure.cz/admin/setup.php on line 118
[15-Dec-2012 12:22:17 UTC] PHP Warning:  fwrite() expects parameter 1 to be resource, boolean given in /var/www/edventure.cz/blog.edventure.cz/admin/setup.php on line 119
[15-Dec-2012 12:22:17 UTC] PHP Warning:  fclose() expects parameter 1 to be resource, boolean given in /var/www/edventure.cz/blog.edventure.cz/admin/setup.php on line 120
[15-Dec-2012 12:22:17 UTC] PHP Warning:  rename(/var/www/edventure.cz/blog.edventure.cz/temp.gsconfig.php,/var/www/edventure.cz/blog.edventure.cz/gsconfig.php): Permission denied in /var/www/edventure.cz/blog.edventure.cz/admin/setup.php on line 137
[15-Dec-2012 12:23:25 UTC] PHP Warning:  unlink(/var/www/edventure.cz/blog.edventure.cz/admin/install.php): Permission denied in /var/www/edventure.cz/blog.edventure.cz/admin/inc/common.php on line 196
[15-Dec-2012 12:23:25 UTC] PHP Warning:  unlink(/var/www/edventure.cz/blog.edventure.cz/admin/setup.php): Permission denied in /var/www/edventure.cz/blog.edventure.cz/admin/inc/common.php on line 199
[15-Dec-2012 12:23:25 UTC] PHP Warning:  unlink(/var/www/edventure.cz/blog.edventure.cz/admin/update.php): Permission denied in /var/www/edventure.cz/blog.edventure.cz/admin/inc/common.php on line 202
[15-Dec-2012 12:30:40 UTC] PHP Warning:  Cannot modify header information - headers already sent by (output started at /var/www/edventure.cz/blog.edventure.cz/admin/upload-uploadify.php:63) in /var/www/edventure.cz/blog.edventure.cz/admin/upload-uploadify.php on line 98
[15-Dec-2012 12:30:40 UTC] PHP Warning:  imagecopyresampled(): 26 is not a valid Image resource in /var/www/edventure.cz/blog.edventure.cz/admin/upload-uploadify.php on line 127
[15-Dec-2012 12:30:40 UTC] PHP Warning:  imagedestroy(): 26 is not a valid Image resource in /var/www/edventure.cz/blog.edventure.cz/admin/upload-uploadify.php on line 149
[15-Dec-2012 12:30:40 UTC] PHP Warning:  Illegal string offset 'type' in /var/www/edventure.cz/blog.edventure.cz/admin/inc/basic.php on line 179
[15-Dec-2012 12:34:05 UTC] PHP Warning:  Illegal string offset 'type' in /var/www/edventure.cz/blog.edventure.cz/admin/inc/basic.php on line 179
[15-Dec-2012 12:49:17 UTC] PHP Warning:  Illegal string offset 'type' in /var/www/edventure.cz/blog.edventure.cz/admin/inc/basic.php on line 179
